Loading and Cleaning Data in R
…
-  [Geolocator data](https://steffilazerte.ca/BU-R-Workshop/data/geolocators.csv)

.columnl[
.small[

```r
my_data <- read_csv("data/geolocators.csv")
my_data
```

```
## # A tibble: 20 × 2
*##    `02/05/11 22:29:59`  `64`
##    <chr>               <dbl>
##  1 02/05/11 22:31:59      64
##  2 02/05/11 22:33:59      38
##  3 02/05/11 22:35:59      38
##  4 02/05/11 22:37:59      34
##  5 02/05/11 22:39:59      30
##  6 02/05/11 22:41:59      34
##  7 02/05/11 22:43:59      40
##  8 02/05/11 22:45:59      46
##  9 02/05/11 22:47:59      48
## 10 02/05/11 22:49:59      46
## # … with 10 more rows
```
…
.columnl[

### Declare no headings
.small[

```r
my_data <- read_csv("data/geolocators.csv", 
*                   col_names = FALSE)
my_data
```

```
## # A tibble: 21 × 2
*##    X1                   X2
##    <chr>             <dbl>
##  1 02/05/11 22:29:59    64
##  2 02/05/11 22:31:59    64
##  3 02/05/11 22:33:59    38
##  4 02/05/11 22:35:59    38
##  5 02/05/11 22:37:59    34
##  6 02/05/11 22:39:59    30
##  7 02/05/11 22:41:59    34
##  8 02/05/11 22:43:59    40
##  9 02/05/11 22:45:59    46
## 10 02/05/11 22:47:59    48
## # … with 11 more rows
```
…
--

.columnr[
### Name headings

.small[

```r
my_data <- read_csv("data/geolocators.csv", 
*                   col_names = c("date", "light"))
my_data
```

```
## # A tibble: 21 × 2
*##    date              light
##    <chr>             <dbl>
##  1 02/05/11 22:29:59    64
##  2 02/05/11 22:31:59    64
##  3 02/05/11 22:33:59    38
##  4 02/05/11 22:35:59    38
##  5 02/05/11 22:37:59    34
##  6 02/05/11 22:39:59    30
##  7 02/05/11 22:41:59    34
##  8 02/05/11 22:43:59    40
##  9 02/05/11 22:45:59    46
## 10 02/05/11 22:47:59    48
## # … with 11 more rows
```
]]

---
# 2. `skip` info rows before data

- [Grain size data](https://steffilazerte.ca/BU-R-Workshop/data/grain_size.txt)

```r
my_data <- read_tsv("data/grain_size.txt")
my_data
```

```
## # A tibble: 36 × 7
*##    `DATA DOWNLOAD: 2015-09-23` ...2  ...3        ...4     ...5  ...6  ...7 
##    <chr>                       <chr> <chr>       <chr>    <chr> <chr> <chr>
*##  1 SYSTEM 001                  <NA>  <NA>        <NA>     <NA>  <NA>  <NA> 
*##  2 LOGGER X                    <NA>  <NA>        <NA>     <NA>  <NA>  <NA> 
*##  3 lab_num                     CSP   sample_num  depth_lb csa   msa   fsa  
##  4 3177                        CSP01 CSP01-P-1-1 4        13.04 17.37 8.19 
##  5 3178                        CSP01 CSP01-P-1-2 12       10.74 16.9  7.92 
##  6 3179                        CSP01 CSP01-P-1-3 35       12.11 17.75 6.99 
##  7 3180                        CSP01 CSP01-P-1-4 53       17.61 18.16 6.29 
##  8 3181                        CSP01 CSP01-P-1-5 83       21.05 18.38 6.26 
##  9 3182                        CSP01 CSP01-P-1-6 105      19.02 18.43 6.28 
## 10 3183                        CSP08 CSP08-P-1-1 10       11.6  17.14 8.18 
## # … with 26 more rows
```
…
---
class: split-30
# 2. `skip` info rows before data

- [Grain size data](https://steffilazerte.ca/BU-R-Workshop/data/grain_size.txt)
- Add `skip = 3` to skip the first three rows

```r
my_data <- read_tsv("data/grain_size.txt", skip = 3)
my_data
```

```
## # A tibble: 33 × 7
##    lab_num CSP   sample_num  depth_lb   csa   msa   fsa
##      <dbl> <chr> <chr>          <dbl> <dbl> <dbl> <dbl>
##  1    3177 CSP01 CSP01-P-1-1        4 13.0  17.4   8.19
##  2    3178 CSP01 CSP01-P-1-2       12 10.7  16.9   7.92
##  3    3179 CSP01 CSP01-P-1-3       35 12.1  17.8   6.99
##  4    3180 CSP01 CSP01-P-1-4       53 17.6  18.2   6.29
##  5    3181 CSP01 CSP01-P-1-5       83 21.0  18.4   6.26
##  6    3182 CSP01 CSP01-P-1-6      105 19.0  18.4   6.28
##  7    3183 CSP08 CSP08-P-1-1       10 11.6  17.1   8.18
##  8    3184 CSP08 CSP08-P-1-2       27 15.4  16.2   6.76
##  9    3185 CSP08 CSP08-P-1-3       90 14.9  15.8   7.12
## 10    3186 CSP02 CSP02-P-1-1        5  8.75  8.64  3.41
## # … with 23 more rows
```
…
> Much better!

---
# Your turn: Load this data set

Try loading the telemetry data set: [`Sta A Data 2006-11-07.dmp`](https://steffilazerte.ca/BU-R-Workshop/data/Sta%20A%20Data%202006-11-07.dmp)

1. Look at the file
2. Decide which R function to use based on delimiter .small[(comma, space, or tab?)]
3. Any other options need to be specified?

### It should look like this:

```
## # A tibble: 19 × 7
##   StartDate Time     Frequency `Rate/Temp`   Pwr Ant      SD
##       <dbl> <time>       <dbl>       <dbl> <dbl> <chr> <dbl>
## 1     39022 17:15:36      150.        34.8   175 M0        0
## 2     39022 17:19:14      148.        19.2    72 M0        0
## 3     39022 17:19:25      148.        19.7   194 M1        0
## 4     39022 17:20:04      149.        33.8   104 M0        0
## 5     39022 17:20:17      149.        33.7   152 M1        0
## 6     39022 17:20:57      150.        34.2   188 M0        0
## 7     39022 17:22:50      148.         9.8   188 M0        0
## # … with 12 more rows
```
…
---
exclude: TRUE
# Your turn: Load this data set

Try loading the telemetry data set: [`Sta A Data 2006-11-07.dmp`](https://steffilazerte.ca/BU-R-Workshop/data/Sta%20A%20Data%202006-11-07.dmp)

```r
telemetry <- read_csv("data/Sta A Data 2006-11-07.dmp", skip = 2)
telemetry
```

```
## # A tibble: 19 × 7
##   StartDate Time     Frequency `Rate/Temp`   Pwr Ant      SD
##       <dbl> <time>       <dbl>       <dbl> <dbl> <chr> <dbl>
## 1     39022 17:15:36      150.        34.8   175 M0        0
## 2     39022 17:19:14      148.        19.2    72 M0        0
## 3     39022 17:19:25      148.        19.7   194 M1        0
## 4     39022 17:20:04      149.        33.8   104 M0        0
## 5     39022 17:20:17      149.        33.7   152 M1        0
## 6     39022 17:20:57      150.        34.2   188 M0        0
## 7     39022 17:22:50      148.         9.8   188 M0        0
## # … with 12 more rows
```
…
- Make sure columns as expected (correctly assigned file format)
- Make sure no extra lines above the data (should we have used a skip?)
- Make sure column names look appropriate

.small[

```r
library(palmerpenguins)
penguins
```

```
## # A tibble: 344 × 8
##    species island    bill_length_mm bill_depth_mm flipper_length_mm body_mass_g sex     year
##    <fct>   <fct>              <dbl>         <dbl>             <int>       <int> <fct>  <int>
##  1 Adelie  Torgersen           39.1          18.7               181        3750 male    2007
##  2 Adelie  Torgersen           39.5          17.4               186        3800 female  2007
##  3 Adelie  Torgersen           40.3          18                 195        3250 female  2007
##  4 Adelie  Torgersen           NA            NA                  NA          NA <NA>    2007
##  5 Adelie  Torgersen           36.7          19.3               193        3450 female  2007
##  6 Adelie  Torgersen           39.3          20.6               190        3650 male    2007
##  7 Adelie  Torgersen           38.9          17.8               181        3625 female  2007
##  8 Adelie  Torgersen           39.2          19.6               195        4675 male    2007
##  9 Adelie  Torgersen           34.1          18.1               193        3475 <NA>    2007
## 10 Adelie  Torgersen           42            20.2               190        4250 <NA>    2007
## # … with 334 more rows
```
…
---
# Example of problematic data

.small[

```r
rivers <- read_csv("data/rivers_correct.csv")
rivers
```

```
## # A tibble: 300 × 5
##    `River Name` Site        Ele   Amo                Wea   
##    <chr>        <chr>       <chr> <chr>              <chr> 
##  1 Grasse       Up stream   Al    0.605555555555556  sunny 
##  2 Grasse       Mid stream  Al    0.425              cloudy
##  3 Grase        Down stream Al    0.194444444444444  sunny 
##  4 Oswegatchie  Up stream   Al    1                  cloudy
##  5 Oswegatchie  Mid stream  Al    0.161111111111111  snowy 
##  6 Oswegatchie  Down stream Al    0.0333333333333333 cloudy
##  7 Raquette     Up stream   Al    0.291666666666667  cloudy
##  8 Raquette     Mid stream  Al    0.0388888888888889 sunny 
##  9 Raquette     Down stream Al    0                  snowy 
## 10 St. Regis    Up stream   Al    0.680555555555556  wet   
## # … with 290 more rows
```
…
---
# Cleaning column names

#### **`clean_names()`**

```r
library(janitor)
rivers <- clean_names(rivers)
rivers
```

```
## # A tibble: 300 × 5
##    river_name  site        ele   amo                wea   
##    <chr>       <chr>       <chr> <chr>              <chr> 
##  1 Grasse      Up stream   Al    0.605555555555556  sunny 
##  2 Grasse      Mid stream  Al    0.425              cloudy
##  3 Grase       Down stream Al    0.194444444444444  sunny 
##  4 Oswegatchie Up stream   Al    1                  cloudy
##  5 Oswegatchie Mid stream  Al    0.161111111111111  snowy 
##  6 Oswegatchie Down stream Al    0.0333333333333333 cloudy
##  7 Raquette    Up stream   Al    0.291666666666667  cloudy
##  8 Raquette    Mid stream  Al    0.0388888888888889 sunny 
##  9 Raquette    Down stream Al    0                  snowy 
## 10 St. Regis   Up stream   Al    0.680555555555556  wet   
## # … with 290 more rows
```

---
# Cleaning column names

### **`rename()`** columns

```r
rivers <- rename(rivers, element = ele, amount = amo)
rivers
```

```
## # A tibble: 300 × 5
##    river_name  site        element amount             wea   
##    <chr>       <chr>       <chr>   <chr>              <chr> 
##  1 Grasse      Up stream   Al      0.605555555555556  sunny 
##  2 Grasse      Mid stream  Al      0.425              cloudy
##  3 Grase       Down stream Al      0.194444444444444  sunny 
##  4 Oswegatchie Up stream   Al      1                  cloudy
##  5 Oswegatchie Mid stream  Al      0.161111111111111  snowy 
##  6 Oswegatchie Down stream Al      0.0333333333333333 cloudy
##  7 Raquette    Up stream   Al      0.291666666666667  cloudy
##  8 Raquette    Mid stream  Al      0.0388888888888889 sunny 
##  9 Raquette    Down stream Al      0                  snowy 
## 10 St. Regis   Up stream   Al      0.680555555555556  wet   
## # … with 290 more rows
```
…
```r
rivers <- select(rivers, river_name, site, element, amount)
```

--

### **OR**, un**`select()`** columns you don't want

```r
rivers <- select(rivers, -wea)
rivers
```

```
## # A tibble: 300 × 4
##    river_name  site        element amount            
##    <chr>       <chr>       <chr>   <chr>             
##  1 Grasse      Up stream   Al      0.605555555555556 
##  2 Grasse      Mid stream  Al      0.425             
##  3 Grase       Down stream Al      0.194444444444444 
##  4 Oswegatchie Up stream   Al      1                 
##  5 Oswegatchie Mid stream  Al      0.161111111111111 
##  6 Oswegatchie Down stream Al      0.0333333333333333
##  7 Raquette    Up stream   Al      0.291666666666667 
##  8 Raquette    Mid stream  Al      0.0388888888888889
##  9 Raquette    Down stream Al      0                 
## 10 St. Regis   Up stream   Al      0.680555555555556 
## # … with 290 more rows
```
---
# Cleaning columns

### Put it all together

```r
rivers <- read_csv("data/rivers_correct.csv")
rivers <- clean_names(rivers)
rivers <- rename(rivers, element = ele, amount = amo)
rivers <- select(rivers, -wea)
rivers
```

```
## # A tibble: 300 × 4
##    river_name  site        element amount            
##    <chr>       <chr>       <chr>   <chr>             
##  1 Grasse      Up stream   Al      0.605555555555556 
##  2 Grasse      Mid stream  Al      0.425             
##  3 Grase       Down stream Al      0.194444444444444 
##  4 Oswegatchie Up stream   Al      1                 
##  5 Oswegatchie Mid stream  Al      0.161111111111111 
##  6 Oswegatchie Down stream Al      0.0333333333333333
##  7 Raquette    Up stream   Al      0.291666666666667 
##  8 Raquette    Mid stream  Al      0.0388888888888889
##  9 Raquette    Down stream Al      0                 
## 10 St. Regis   Up stream   Al      0.680555555555556 
## # … with 290 more rows
```
…
---
# Typos that affect classes (formats)

### Look for problems

.small[

```r
rivers
```

```
## # A tibble: 300 × 4
##    river_name  site        element amount            
*##    <chr>       <chr>       <chr>   <chr>             
##  1 Grasse      Up stream   Al      0.605555555555556 
##  2 Grasse      Mid stream  Al      0.425             
##  3 Grasse      Down stream Al      0.194444444444444 
##  4 Oswegatchie Up stream   Al      1                 
##  5 Oswegatchie Mid stream  Al      0.161111111111111 
##  6 Oswegatchie Down stream Al      0.0333333333333333
##  7 Raquette    Up stream   Al      0.291666666666667 
##  8 Raquette    Mid stream  Al      0.0388888888888889
##  9 Raquette    Down stream Al      0                 
## 10 St. Regis   Up stream   Al      0.680555555555556 
## # … with 290 more rows
```
…
```r
rivers <- mutate(rivers, amount = as.numeric(amount))
```

---
# Fixing numerical typos

### Last, but not least, check...

```r
rivers
```

```
## # A tibble: 300 × 5
##    river_name  site        element amount amount2
##    <chr>       <chr>       <chr>    <dbl>   <dbl>
##  1 Grasse      Up stream   Al      0.606   0.606 
##  2 Grasse      Mid stream  Al      0.425   0.425 
##  3 Grasse      Down stream Al      0.194   0.194 
##  4 Oswegatchie Up stream   Al      1       1     
##  5 Oswegatchie Mid stream  Al      0.161   0.161 
##  6 Oswegatchie Down stream Al      0.0333  0.0333
##  7 Raquette    Up stream   Al      0.292   0.292 
##  8 Raquette    Mid stream  Al      0.0389  0.0389
##  9 Raquette    Down stream Al      0       0     
## 10 St. Regis   Up stream   Al      0.681   0.681 
## # … with 290 more rows
```
…
## (Or why does R hate me?)

---
# Dates and Times

- Date/times aren't always recognized as date/times

```r
geolocators <- read_csv("data/geolocators.csv", col_names = c("time", "light"))
geolocators
```

```
## # A tibble: 21 × 2
##   time              light
##   <chr>             <dbl>
## 1 02/05/11 22:29:59    64
## 2 02/05/11 22:31:59    64
## 3 02/05/11 22:33:59    38
## 4 02/05/11 22:35:59    38
## 5 02/05/11 22:37:59    34
## 6 02/05/11 22:39:59    30
## # … with 15 more rows
```
…
---
# `lubridate` package

- Part of `tidyverse`, but needs to be loaded separately
- Great for converting date/time formats

```r
library(lubridate)
geolocators <- mutate(geolocators, time_formatted = dmy_hms(time))
geolocators
```

```
## # A tibble: 21 × 3
##   time              light time_formatted     
##   <chr>             <dbl> <dttm>             
## 1 02/05/11 22:29:59    64 2011-05-02 22:29:59
## 2 02/05/11 22:31:59    64 2011-05-02 22:31:59
## 3 02/05/11 22:33:59    38 2011-05-02 22:33:59
## 4 02/05/11 22:35:59    38 2011-05-02 22:35:59
## 5 02/05/11 22:37:59    34 2011-05-02 22:37:59
## 6 02/05/11 22:39:59    30 2011-05-02 22:39:59
## # … with 15 more rows
```
…
