Summarizing and Transforming Data in R
…
```
## # A tibble: 114 × 9
##    plot  depth coarse_sand medium_sand fine_sand coarse_silt medium_silt fine_silt  clay
##    <chr> <dbl>       <dbl>       <dbl>     <dbl>       <dbl>       <dbl>     <dbl> <dbl>
##  1 CSP01     4       13.0        17.4      19.7        14.1        11.2       8.17  16.3
##  2 CSP01    12       10.7        16.9      19.2        14.1        11.7       9.03  18.4
##  3 CSP01    35       12.1        17.8      16.1        10.3         9.51      7.47  26.7
##  4 CSP01    53       17.6        18.2      14.3         9.4         9.1       8.7   22.7
##  5 CSP01    83       21.0        18.4      14.3         9.79        8.79      7.29  20.4
##  6 CSP01   105       19.0        18.4      14.4        10.8         9.4       8.22  19.7
##  7 CSP08    10       11.6        17.1      20.8        16.3         9.55      6.23  18.4
##  8 CSP08    27       15.4        16.2      17.8        14.3        10.4       6.1   19.6
##  9 CSP08    90       14.9        15.8      18.6        15.1        11.5       7.56  16.5
## 10 CSP02     5        8.75        8.64      8.66       12.0        18.3      15.2   28.5
## # … with 104 more rows
```
…
---
class: split-55
# Subsetting: By columns

.columnl[
## Subset by variable (i.e., column)

.medium[

```r
select(size, coarse_sand, medium_sand, fine_sand)
```

```
## # A tibble: 114 × 3
##   coarse_sand medium_sand fine_sand
##         <dbl>       <dbl>     <dbl>
## 1        13.0        17.4      19.7
## 2        10.7        16.9      19.2
## 3        12.1        17.8      16.1
## 4        17.6        18.2      14.3
## # … with 110 more rows
```
]]

--

.columnr[
## Using helper functions

.medium[

```r
select(size, ends_with("sand"))
```

```
## # A tibble: 114 × 3
##   coarse_sand medium_sand fine_sand
##         <dbl>       <dbl>     <dbl>
## 1        13.0        17.4      19.7
## 2        10.7        16.9      19.2
## 3        12.1        17.8      16.1
## 4        17.6        18.2      14.3
## # … with 110 more rows
```
…
---
class: split-45
# Joining data sets

.columnl[
## Index or Metadata
.small[

```r
meta <- read_csv("data/grain_meta.csv")
meta
```

```
## # A tibble: 27 × 4
##   plot  habitat   technician date      
##   <chr> <chr>     <chr>      <date>    
## 1 CSP01 forest    Catharine  2009-02-17
## 2 CSP02 clearcut  Catharine  2009-05-06
## 3 CSP03 forest    Jason      2008-09-03
## 4 CSP04 forest    Catharine  2008-09-16
## 5 CSP05 clearcut  Catharine  2009-04-10
## 6 CSP06 forest    Jason      2009-01-10
## 7 CSP07 grassland Jason      2008-10-12
## 8 CSP08 grassland Catharine  2009-01-23
## # … with 19 more rows
```
]]

.columnr[
## Measurements
.small[

```r
size <- read_csv("data/grain_size2.csv")
size
```

```
## # A tibble: 114 × 9
##   plot  depth coarse_sand medium_sand fine_sand coarse_silt
##   <chr> <dbl>       <dbl>       <dbl>     <dbl>       <dbl>
## 1 CSP01     4        13.0        17.4      19.7       14.1 
## 2 CSP01    12        10.7        16.9      19.2       14.1 
## 3 CSP01    35        12.1        17.8      16.1       10.3 
## 4 CSP01    53        17.6        18.2      14.3        9.4 
## 5 CSP01    83        21.0        18.4      14.3        9.79
## 6 CSP01   105        19.0        18.4      14.4       10.8 
## 7 CSP08    10        11.6        17.1      20.8       16.3 
## 8 CSP08    27        15.4        16.2      17.8       14.3 
## # … with 106 more rows, and 3 more variables:
## #   medium_silt <dbl>, fine_silt <dbl>, clay <dbl>
```
…
---
exclude: TRUE

# Your turn: Creating new columns

- Add a calculation for **total `silt`**
- Check your work

```r
select(size, contains("silt"))
```

```
## # A tibble: 114 × 4
##    coarse_silt medium_silt fine_silt total_silt
##          <dbl>       <dbl>     <dbl>      <dbl>
##  1       14.1        11.2       8.17       33.5
##  2       14.1        11.7       9.03       34.8
##  3       10.3         9.51      7.47       27.3
##  4        9.4         9.1       8.7        27.2
##  5        9.79        8.79      7.29       25.9
##  6       10.8         9.4       8.22       28.4
##  7       16.3         9.55      6.23       32.1
##  8       14.3        10.4       6.1        30.8
##  9       15.1        11.5       7.56       34.2
## 10       12.0        18.3      15.2        45.4
## # … with 104 more rows
```
…
---
# Side Note

## Where are the decimal points?

- `tibble` rounds values for easy viewing

.small[

```
## # A tibble: 114 × 15
##   plot  depth coarse_sand medium_sand fine_sand coarse_silt medium_silt
##   <chr> <dbl>       <dbl>       <dbl>     <dbl>       <dbl>       <dbl>
## 1 CSP01     4        13.0        17.4      19.7       14.1        11.2 
## 2 CSP01    12        10.7        16.9      19.2       14.1        11.7 
## 3 CSP01    35        12.1        17.8      16.1       10.3         9.51
## 4 CSP01    53        17.6        18.2      14.3        9.4         9.1 
## 5 CSP01    83        21.0        18.4      14.3        9.79        8.79
## # … with 109 more rows, and 8 more variables: fine_silt <dbl>, clay <dbl>,
## #   habitat <chr>, technician <chr>, date <date>, total_sand <dbl>,
## #   total_silt <dbl>, total <dbl>
```
…
<!-- Sometimes you want to create a new column, but with calculations performed separately for each group. -->

.columnl[
### `mutate()` without grouping:

```r
size <- size %>%
  mutate(mean_sand_all = mean(total_sand))
```

```
## # A tibble: 114 × 3
##    plot  total_sand mean_sand_all
##    <chr>      <dbl>         <dbl>
##  1 CSP01       50.1          39.6
##  2 CSP01       46.8          39.6
##  3 CSP01       46            39.6
##  4 CSP01       50.1          39.6
##  5 CSP01       53.8          39.6
##  6 CSP01       51.9          39.6
##  7 CSP08       49.6          39.6
##  8 CSP08       49.5          39.6
##  9 CSP08       49.2          39.6
## 10 CSP02       26.0          39.6
## # … with 104 more rows
```
…
--

.columnr[
### Grouping via `group_by()`:

```r
size <- size %>%
* group_by(plot) %>%
  mutate(mean_sand_plot = mean(total_sand)) %>%
* ungroup()
```

```
## # A tibble: 114 × 3
##   plot  total_sand mean_sand_plot
##   <chr>      <dbl>          <dbl>
## 1 CSP01       50.1           49.8
## 2 CSP01       46.8           49.8
## 3 CSP01       46             49.8
## 4 CSP01       50.1           49.8
## 5 CSP01       53.8           49.8
## 6 CSP01       51.9           49.8
## 7 CSP08       49.6           49.4
## 8 CSP08       49.5           49.4
## # … with 106 more rows
```
…
Add a column containing the **mean amount of total silt _per_ plot**

```r
meta <- read_csv("data/grain_meta.csv")
size <- read_csv("data/grain_size2.csv") %>%
  left_join(meta, by = "plot") %>%
  mutate(total_sand = coarse_sand + medium_sand + fine_sand,
         total_silt = coarse_silt + medium_silt + fine_silt) %>%
* group_by(plot) %>%
* mutate(mean_silt = mean(total_silt)) %>%
* ungroup()
```

```
## # A tibble: 114 × 6
##   plot  coarse_silt medium_silt fine_silt total_silt mean_silt
##   <chr>       <dbl>       <dbl>     <dbl>      <dbl>     <dbl>
## 1 CSP01        14.1       11.2       8.17       33.5      29.5
## 2 CSP01        14.1       11.7       9.03       34.8      29.5
## 3 CSP01        10.3        9.51      7.47       27.3      29.5
## 4 CSP01         9.4        9.1       8.7        27.2      29.5
## # … with 110 more rows
```
…
---
# Put it all together

## Check it out

```r
select(size, plot, depth, total_sand, total_silt, mean_sand, mean_silt)
```

```
## # A tibble: 114 × 6
##    plot  depth total_sand total_silt mean_sand mean_silt
##    <chr> <dbl>      <dbl>      <dbl>     <dbl>     <dbl>
##  1 CSP01     4       50.1       33.5      49.8      29.5
##  2 CSP01    12       46.8       34.8      49.8      29.5
##  3 CSP01    35       46         27.3      49.8      29.5
##  4 CSP01    53       50.1       27.2      49.8      29.5
##  5 CSP01    83       53.8       25.9      49.8      29.5
##  6 CSP01   105       51.9       28.4      49.8      29.5
##  7 CSP08    10       49.6       32.1      49.4      32.4
##  8 CSP08    27       49.5       30.8      49.4      32.4
##  9 CSP08    90       49.2       34.2      49.4      32.4
## 10 CSP02     5       26.0       45.4      34.7      40.9
## # … with 104 more rows
```
…
---

### `mutate()`

.narrow[.compact[

```r
size <- size %>%
  group_by(plot) %>%
* mutate(mean_sand = mean(total_sand))
select(size, plot, contains("sand"))
```

```
## # A tibble: 114 × 6
## # Groups:   plot [27]
##   plot  coarse_sand medium_sand fine_sand total_sand mean_sand
##   <chr>       <dbl>       <dbl>     <dbl>      <dbl>     <dbl>
## 1 CSP01        13.0        17.4      19.7       50.1      49.8
## 2 CSP01        10.7        16.9      19.2       46.8      49.8
## 3 CSP01        12.1        17.8      16.1       46        49.8
## 4 CSP01        17.6        18.2      14.3       50.1      49.8
## # … with 110 more rows
```
…
---

### `summarize()`

.narrow[.compact[

```r
size <- size %>%
  group_by(plot) %>%
* summarize(mean_sand = mean(total_sand), .groups = "drop")   #Ungroup data
size
```

```
## # A tibble: 27 × 2
##   plot  mean_sand
##   <chr>     <dbl>
## 1 CSP01      49.8
## 2 CSP02      34.7
## 3 CSP03      29.9
## 4 CSP04      30.3
## 5 CSP05      44.6
## # … with 22 more rows
```
…
]

- Keep other id columns by adding them to `group_by()`
- Beware: think carefully about grouping variables!

.small[

```r
size %>% 
  group_by(plot, depth) %>%
  summarize(mean_sand = mean(total_sand), .groups = "drop")
```

```
## # A tibble: 114 × 3
##   plot  depth mean_sand
##   <chr> <dbl>     <dbl>
## 1 CSP01     4      50.1
## 2 CSP01    12      46.8
## 3 CSP01    35      46  
## 4 CSP01    53      50.1
## 5 CSP01    83      53.8
## 6 CSP01   105      51.9
## # … with 108 more rows
```
…
- Use true groups of interest (e.g., Sex, Age)
- Or use factors which are on the same level (e.g., ID columns)

.small[

```r
size %>% 
  group_by(plot, habitat) %>%
  summarize(mean_sand = mean(total_sand), .groups = "drop")
```

```
## # A tibble: 27 × 3
##   plot  habitat  mean_sand
##   <chr> <chr>        <dbl>
## 1 CSP01 forest        49.8
## 2 CSP02 clearcut      34.7
## 3 CSP03 forest        29.9
## 4 CSP04 forest        30.3
## 5 CSP05 clearcut      44.6
## 6 CSP06 forest        37.8
## # … with 21 more rows
```
…
**For example...**

```r
size %>%
  group_by(plot) %>%
  summarize(samples_total = n(), 
            .groups = "drop")
```
]

.columnr[

```
## # A tibble: 27 × 2
##   plot  samples_total
##   <chr>         <int>
## 1 CSP01             6
## 2 CSP02             7
## 3 CSP03             4
## 4 CSP04             5
## 5 CSP05             5
## 6 CSP06             5
## # … with 21 more rows
```
…
---
exclude: TRUE
# Your Turn: Calculate summary statistics

## Check your work

```r
size_sum
```

```
## # A tibble: 27 × 9
## # Groups:   plot [27]
##    plot  habitat   sample_size mean_sand sd_sand se_sand mean_silt sd_silt se_silt
##    <chr> <chr>           <int>     <dbl>   <dbl>   <dbl>     <dbl>   <dbl>   <dbl>
##  1 CSP01 forest              6      49.8   2.96    1.21       29.5   3.72    1.52 
##  2 CSP02 clearcut            7      34.7  10.8     4.06       40.9   4.29    1.62 
##  3 CSP03 forest              4      29.9   4.89    2.45       43.6   3.25    1.63 
##  4 CSP04 forest              5      30.3   2.18    0.973      43.0   0.544   0.243
##  5 CSP05 clearcut            5      44.6   5.52    2.47       31.8   1.81    0.811
##  6 CSP06 forest              5      37.8   4.10    1.83       48.1   3.32    1.49 
##  7 CSP07 grassland           3      36.6   7.30    4.21       39.8   1.05    0.609
##  8 CSP08 grassland           3      49.4   0.176   0.102      32.4   1.73    0.998
##  9 CSP09 grassland           5      37.9   2.98    1.33       38.4   1.17    0.524
## 10 CSP10 grassland           3      34.6   9.71    5.61       44.1   5.41    3.13 
## # … with 17 more rows
```
…
---
# Going long

```r
size_long <- pivot_longer(size, cols = c(-plot, -depth, -habitat, -technician, -date),
                          names_to = "type", values_to = "amount")
```

```
## # A tibble: 1,026 × 7
##    plot  depth habitat technician date       type        amount
##    <chr> <dbl> <chr>   <chr>      <date>     <chr>        <dbl>
##  1 CSP01     4 forest  Catharine  2009-02-17 coarse_sand  13.0 
##  2 CSP01     4 forest  Catharine  2009-02-17 medium_sand  17.4 
##  3 CSP01     4 forest  Catharine  2009-02-17 fine_sand    19.7 
##  4 CSP01     4 forest  Catharine  2009-02-17 coarse_silt  14.1 
##  5 CSP01     4 forest  Catharine  2009-02-17 medium_silt  11.2 
##  6 CSP01     4 forest  Catharine  2009-02-17 fine_silt     8.17
##  7 CSP01     4 forest  Catharine  2009-02-17 clay         16.3 
##  8 CSP01     4 forest  Catharine  2009-02-17 total_sand   50.1 
##  9 CSP01     4 forest  Catharine  2009-02-17 total_silt   33.5 
## 10 CSP01    12 forest  Catharine  2009-02-17 coarse_sand  10.7 
## 11 CSP01    12 forest  Catharine  2009-02-17 medium_sand  16.9 
## 12 CSP01    12 forest  Catharine  2009-02-17 fine_sand    19.2 
## # … with 1,014 more rows
```
…
```r
sand_sum <- read_csv("data/grain_size2.csv") %>%
  mutate(total_sand = coarse_sand + medium_sand + fine_sand) %>%
  group_by(plot) %>%
  summarize(sample_size = n(),
            mean_sand = mean(total_sand),
            sd_sand = sd(total_sand),
            se_sand = sd_sand / sqrt(sample_size))

sand_sum
```

```
## # A tibble: 27 × 5
##    plot  sample_size mean_sand sd_sand se_sand
##    <chr>       <int>     <dbl>   <dbl>   <dbl>
##  1 CSP01           6      49.8   2.96    1.21 
##  2 CSP02           7      34.7  10.8     4.06 
##  3 CSP03           4      29.9   4.89    2.45 
##  4 CSP04           5      30.3   2.18    0.973
##  5 CSP05           5      44.6   5.52    2.47 
##  6 CSP06           5      37.8   4.10    1.83 
##  7 CSP07           3      36.6   7.30    4.21 
##  8 CSP08           3      49.4   0.176   0.102
##  9 CSP09           5      37.9   2.98    1.33 
## 10 CSP10           3      34.6   9.71    5.61 
## # … with 17 more rows
```
…
# Your turn: Lengthen data

- Practice transforming a summarized sand data
- Gather all variables except plot and sample_size into a long format

```r
sand_long <- pivot_longer(sand_sum, 
*                         cols = contains("sand"),
*                         names_to = "type",
*                         values_to = "amount")
```

```
## # A tibble: 81 × 4
##    plot  sample_size type      amount
##    <chr>       <int> <chr>      <dbl>
##  1 CSP01           6 mean_sand  49.8 
##  2 CSP01           6 sd_sand     2.96
##  3 CSP01           6 se_sand     1.21
##  4 CSP02           7 mean_sand  34.7 
##  5 CSP02           7 sd_sand    10.8 
##  6 CSP02           7 se_sand     4.06
##  7 CSP03           4 mean_sand  29.9 
##  8 CSP03           4 sd_sand     4.89
##  9 CSP03           4 se_sand     2.45
## 10 CSP04           5 mean_sand  30.3 
## # … with 71 more rows
```
…
---
# Going wide

```r
size_wide <- size_long %>%
  pivot_wider(names_from = type, values_from = amount)
```

.small[

```
## # A tibble: 114 × 14
##    plot  depth habitat   technician date       coarse_sand medium_sand fine_sand coarse_silt medium_silt
##    <chr> <dbl> <chr>     <chr>      <date>           <dbl>       <dbl>     <dbl>       <dbl>       <dbl>
##  1 CSP01     4 forest    Catharine  2009-02-17       13.0        17.4      19.7        14.1        11.2 
##  2 CSP01    12 forest    Catharine  2009-02-17       10.7        16.9      19.2        14.1        11.7 
##  3 CSP01    35 forest    Catharine  2009-02-17       12.1        17.8      16.1        10.3         9.51
##  4 CSP01    53 forest    Catharine  2009-02-17       17.6        18.2      14.3         9.4         9.1 
##  5 CSP01    83 forest    Catharine  2009-02-17       21.0        18.4      14.3         9.79        8.79
##  6 CSP01   105 forest    Catharine  2009-02-17       19.0        18.4      14.4        10.8         9.4 
##  7 CSP08    10 grassland Catharine  2009-01-23       11.6        17.1      20.8        16.3         9.55
##  8 CSP08    27 grassland Catharine  2009-01-23       15.4        16.2      17.8        14.3        10.4 
##  9 CSP08    90 grassland Catharine  2009-01-23       14.9        15.8      18.6        15.1        11.5 
## 10 CSP02     5 clearcut  Catharine  2009-05-06        8.75        8.64      8.66       12.0        18.3 
## # … with 104 more rows, and 4 more variables: fine_silt <dbl>, clay <dbl>, total_sand <dbl>, total_silt <dbl>
```
…
```r
size <- read_csv("data/grain_size2.csv") %>%
  left_join(meta, by = "plot") %>%
  mutate(total_sand = coarse_sand + medium_sand + fine_sand,
         total_silt = coarse_silt + medium_silt + fine_silt)

size_long <- pivot_longer(size, cols = c(-plot, -depth, -technician, -habitat, -date, -clay),
*                         names_to = c("size", "category"), values_to = "amount",
*                         names_sep = "_") %>%
  mutate(size = factor(size, levels = c("total", "coarse", "medium", "fine")))
```

```
## # A tibble: 912 × 9
##   plot  depth  clay habitat technician date       size   category amount
##   <chr> <dbl> <dbl> <chr>   <chr>      <date>     <fct>  <chr>     <dbl>
## 1 CSP01     4  16.3 forest  Catharine  2009-02-17 coarse sand      13.0 
## 2 CSP01     4  16.3 forest  Catharine  2009-02-17 medium sand      17.4 
## 3 CSP01     4  16.3 forest  Catharine  2009-02-17 fine   sand      19.7 
## 4 CSP01     4  16.3 forest  Catharine  2009-02-17 coarse silt      14.1 
## 5 CSP01     4  16.3 forest  Catharine  2009-02-17 medium silt      11.2 
## 6 CSP01     4  16.3 forest  Catharine  2009-02-17 fine   silt       8.17
## # … with 906 more rows
```
…
